-------------------------------------------------------------------------------
Test set: com.health.insurance.premium.api.PremiumGeneratorApiApplicationTests
-------------------------------------------------------------------------------
Tests run: 1, Failures: 0, Errors: 0, Skipped: 0, Time elapsed: 5.017 sec - in com.health.insurance.premium.api.PremiumGeneratorApiApplicationTests
